name: 'User Management'
description: ''
endpoints:
  -
    custom: []
    httpMethods:
      - DELETE
    uri: api/users/self
    metadata:
      custom: []
      groupName: 'User Management'
      groupDescription: ''
      subgroup: ''
      subgroupDescription: ''
      title: 'Allow users to delete their own account'
      description: ''
      authenticated: true
      deprecated: false
    headers:
      Authorization: 'Bearer {YOUR_AUTH_KEY}'
      Content-Type: application/json
      Accept: application/json
    urlParameters: []
    cleanUrlParameters: []
    queryParameters: []
    cleanQueryParameters: []
    bodyParameters:
      password:
        custom: []
        name: password
        description: 'Current password confirmation.'
        required: true
        example: mypassword123
        type: string
        enumValues: []
        exampleWasSpecified: true
        nullable: false
        deprecated: false
      reason:
        custom: []
        name: reason
        description: 'optional Reason for deletion.'
        required: false
        example: 'No longer need account'
        type: string
        enumValues: []
        exampleWasSpecified: true
        nullable: true
        deprecated: false
    cleanBodyParameters:
      password: mypassword123
      reason: 'No longer need account'
    fileParameters: []
    responses:
      -
        custom: []
        status: 200
        content: |-
          {
            "success": true,
            "message": "Your account has been deactivated. You have been logged out from all devices."
          }
        headers: []
        description: ''
    responseFields: []
    auth:
      - headers
      - Authorization
      - 'Bearer 6g43cv8PD1aE5beadkZfhV6'
    controller: null
    method: null
    route: null
  -
    custom: []
    httpMethods:
      - GET
    uri: api/users/self/export
    metadata:
      custom: []
      groupName: 'User Management'
      groupDescription: ''
      subgroup: ''
      subgroupDescription: ''
      title: 'Export user data for GDPR compliance'
      description: ''
      authenticated: true
      deprecated: false
    headers:
      Authorization: 'Bearer {YOUR_AUTH_KEY}'
      Content-Type: application/json
      Accept: application/json
    urlParameters: []
    cleanUrlParameters: []
    queryParameters: []
    cleanQueryParameters: []
    bodyParameters: []
    cleanBodyParameters: []
    fileParameters: []
    responses:
      -
        custom: []
        status: 200
        content: |-
          {
            "success": true,
            "data": {
              "user": {...},
              "profile": {...},
              "audit_logs": [...],
              "exported_at": "2025-01-01T00:00:00Z"
            }
          }
        headers: []
        description: ''
    responseFields: []
    auth:
      - headers
      - Authorization
      - 'Bearer 6g43cv8PD1aE5beadkZfhV6'
    controller: null
    method: null
    route: null
  -
    custom: []
    httpMethods:
      - GET
    uri: api/users
    metadata:
      custom: []
      groupName: 'User Management'
      groupDescription: ''
      subgroup: ''
      subgroupDescription: ''
      title: 'List All Users (Admin Portal)'
      description: |-
        Comprehensive user listing endpoint for administrative user management.
        Provides paginated results with advanced filtering, search, and role-based access control.
        Includes soft-deleted users for audit and restoration purposes. Essential for user administration,
        role assignments, and monitoring user activity across the system.

        Access Requirements: super_admin, admin users only (enforced via UserPolicy)
        Use Cases: User administration portal, role management interface, user activity monitoring
      authenticated: true
      deprecated: false
    headers:
      Authorization: 'Bearer {YOUR_AUTH_KEY}'
      Content-Type: application/json
      Accept: application/json
    urlParameters: []
    cleanUrlParameters: []
    queryParameters:
      include_deleted:
        custom: []
        name: include_deleted
        description: 'optional Include soft-deleted users in results. Useful for viewing deactivated accounts.'
        required: false
        example: true
        type: boolean
        enumValues: []
        exampleWasSpecified: true
        nullable: false
        deprecated: false
      search:
        custom: []
        name: search
        description: 'optional Search across username, email, and name fields (first_name, last_name from profile). Case-insensitive partial matching.'
        required: false
        example: john
        type: string
        enumValues: []
        exampleWasSpecified: true
        nullable: false
        deprecated: false
      role:
        custom: []
        name: role
        description: 'optional Filter users by specific role name. Must match existing role names from roles table.'
        required: false
        example: member
        type: string
        enumValues: []
        exampleWasSpecified: true
        nullable: false
        deprecated: false
      status:
        custom: []
        name: status
        description: 'optional Filter by account status. Options: "active" (non-deleted users), "deleted" (soft-deleted users only).'
        required: false
        example: active
        type: string
        enumValues: []
        exampleWasSpecified: true
        nullable: false
        deprecated: false
    cleanQueryParameters:
      include_deleted: true
      search: john
      role: member
      status: active
    bodyParameters: []
    cleanBodyParameters: []
    fileParameters: []
    responses:
      -
        custom: []
        status: 200
        content: |-
          {
            "success": true,
            "data": {
              "current_page": 1,
              "data": [
                {
                  "id": 1,
                  "username": "johndoe",
                  "email": "john@example.com",
                  "email_verified_at": "2025-01-01T00:00:00Z",
                  "roles": [
                    {"id": 1, "name": "member", "description": "Regular member user"}
                  ],
                  "profile": {
                    "id": 1,
                    "first_name": "John",
                    "last_name": "Doe",
                    "county": {"id": 1, "name": "Nairobi"}
                  },
                  "deleted_at": null,
                  "created_at": "2025-01-01T00:00:00Z"
                }
              ],
              "first_page_url": "http://localhost:8000/api/users?page=1",
              "from": 1,
              "last_page": 5,
              "last_page_url": "http://localhost:8000/api/users?page=5",
              "next_page_url": "http://localhost:8000/api/users?page=2",
              "path": "http://localhost:8000/api/users",
              "per_page": 20,
              "prev_page_url": null,
              "to": 20,
              "total": 100
            }
          }
        headers: []
        description: ''
      -
        custom: []
        status: 403
        content: '{"message": "This action is unauthorized."}'
        headers: []
        description: ''
    responseFields: []
    auth:
      - headers
      - Authorization
      - 'Bearer 6g43cv8PD1aE5beadkZfhV6'
    controller: null
    method: null
    route: null
  -
    custom: []
    httpMethods:
      - GET
    uri: 'api/users/{id}'
    metadata:
      custom: []
      groupName: 'User Management'
      groupDescription: ''
      subgroup: ''
      subgroupDescription: ''
      title: 'Display the specified user'
      description: ''
      authenticated: true
      deprecated: false
    headers:
      Authorization: 'Bearer {YOUR_AUTH_KEY}'
      Content-Type: application/json
      Accept: application/json
    urlParameters:
      id:
        custom: []
        name: id
        description: 'The user ID'
        required: true
        example: architecto
        type: string
        enumValues: []
        exampleWasSpecified: false
        nullable: false
        deprecated: false
    cleanUrlParameters:
      id: architecto
    queryParameters: []
    cleanQueryParameters: []
    bodyParameters: []
    cleanBodyParameters: []
    fileParameters: []
    responses:
      -
        custom: []
        status: 200
        content: |-
          {
            "success": true,
            "data": {
              "id": 1,
              "username": "johndoe",
              "email": "john@example.com",
              "email_verified_at": "2025-01-01T00:00:00Z",
              "roles": ["member"],
              "profile": {
                "first_name": "John",
                "last_name": "Doe",
                "county": {"name": "Nairobi"}
              },
              "last_login": "2025-01-01T00:00:00Z",
              "deleted_at": null
            }
          }
        headers: []
        description: ''
    responseFields: []
    auth:
      - headers
      - Authorization
      - 'Bearer 6g43cv8PD1aE5beadkZfhV6'
    controller: null
    method: null
    route: null
  -
    custom: []
    httpMethods:
      - PUT
    uri: 'api/users/{id}'
    metadata:
      custom: []
      groupName: 'User Management'
      groupDescription: ''
      subgroup: ''
      subgroupDescription: ''
      title: 'Update the specified user'
      description: ''
      authenticated: true
      deprecated: false
    headers:
      Authorization: 'Bearer {YOUR_AUTH_KEY}'
      Content-Type: application/json
      Accept: application/json
    urlParameters:
      id:
        custom: []
        name: id
        description: 'The user ID'
        required: true
        example: architecto
        type: string
        enumValues: []
        exampleWasSpecified: false
        nullable: false
        deprecated: false
    cleanUrlParameters:
      id: architecto
    queryParameters: []
    cleanQueryParameters: []
    bodyParameters:
      username:
        custom: []
        name: username
        description: 'Update username.'
        required: false
        example: newusername
        type: string
        enumValues: []
        exampleWasSpecified: true
        nullable: false
        deprecated: false
      email:
        custom: []
        name: email
        description: 'Update email address.'
        required: false
        example: newemail@example.com
        type: string
        enumValues: []
        exampleWasSpecified: true
        nullable: false
        deprecated: false
    cleanBodyParameters:
      username: newusername
      email: newemail@example.com
    fileParameters: []
    responses:
      -
        custom: []
        status: 200
        content: |-
          {
            "success": true,
            "message": "User updated successfully",
            "data": {
              "id": 1,
              "username": "newusername",
              "email": "newemail@example.com"
            }
          }
        headers: []
        description: ''
    responseFields: []
    auth:
      - headers
      - Authorization
      - 'Bearer 6g43cv8PD1aE5beadkZfhV6'
    controller: null
    method: null
    route: null
  -
    custom: []
    httpMethods:
      - DELETE
    uri: 'api/users/{id}'
    metadata:
      custom: []
      groupName: 'User Management'
      groupDescription: ''
      subgroup: ''
      subgroupDescription: ''
      title: 'Soft delete the specified user'
      description: ''
      authenticated: true
      deprecated: false
    headers:
      Authorization: 'Bearer {YOUR_AUTH_KEY}'
      Content-Type: application/json
      Accept: application/json
    urlParameters:
      id:
        custom: []
        name: id
        description: 'The user ID'
        required: true
        example: architecto
        type: string
        enumValues: []
        exampleWasSpecified: false
        nullable: false
        deprecated: false
    cleanUrlParameters:
      id: architecto
    queryParameters: []
    cleanQueryParameters: []
    bodyParameters: []
    cleanBodyParameters: []
    fileParameters: []
    responses:
      -
        custom: []
        status: 200
        content: |-
          {
            "success": true,
            "message": "User account has been deactivated"
          }
        headers: []
        description: ''
    responseFields: []
    auth:
      - headers
      - Authorization
      - 'Bearer 6g43cv8PD1aE5beadkZfhV6'
    controller: null
    method: null
    route: null
  -
    custom: []
    httpMethods:
      - POST
    uri: 'api/users/{id}/restore'
    metadata:
      custom: []
      groupName: 'User Management'
      groupDescription: ''
      subgroup: ''
      subgroupDescription: ''
      title: 'Restore a soft-deleted user'
      description: ''
      authenticated: true
      deprecated: false
    headers:
      Authorization: 'Bearer {YOUR_AUTH_KEY}'
      Content-Type: application/json
      Accept: application/json
    urlParameters:
      id:
        custom: []
        name: id
        description: 'The user ID to restore'
        required: true
        example: architecto
        type: string
        enumValues: []
        exampleWasSpecified: false
        nullable: false
        deprecated: false
    cleanUrlParameters:
      id: architecto
    queryParameters: []
    cleanQueryParameters: []
    bodyParameters: []
    cleanBodyParameters: []
    fileParameters: []
    responses:
      -
        custom: []
        status: 200
        content: |-
          {
            "success": true,
            "message": "User account has been restored",
            "data": {
              "id": 1,
              "username": "johndoe",
              "email": "john@example.com"
            }
          }
        headers: []
        description: ''
    responseFields: []
    auth:
      - headers
      - Authorization
      - 'Bearer 6g43cv8PD1aE5beadkZfhV6'
    controller: null
    method: null
    route: null
  -
    custom: []
    httpMethods:
      - DELETE
    uri: 'api/users/{id}/force'
    metadata:
      custom: []
      groupName: 'User Management'
      groupDescription: ''
      subgroup: ''
      subgroupDescription: ''
      title: 'Force delete a user (permanent deletion)'
      description: ''
      authenticated: true
      deprecated: false
    headers:
      Authorization: 'Bearer {YOUR_AUTH_KEY}'
      Content-Type: application/json
      Accept: application/json
    urlParameters:
      id:
        custom: []
        name: id
        description: 'The user ID to permanently delete'
        required: true
        example: architecto
        type: string
        enumValues: []
        exampleWasSpecified: false
        nullable: false
        deprecated: false
    cleanUrlParameters:
      id: architecto
    queryParameters: []
    cleanQueryParameters: []
    bodyParameters: []
    cleanBodyParameters: []
    fileParameters: []
    responses:
      -
        custom: []
        status: 200
        content: |-
          {
            "success": true,
            "message": "User account permanently deleted"
          }
        headers: []
        description: ''
    responseFields: []
    auth:
      - headers
      - Authorization
      - 'Bearer 6g43cv8PD1aE5beadkZfhV6'
    controller: null
    method: null
    route: null
  -
    custom: []
    httpMethods:
      - GET
    uri: 'api/users/{id}/audit'
    metadata:
      custom: []
      groupName: 'User Management'
      groupDescription: ''
      subgroup: ''
      subgroupDescription: ''
      title: 'Get audit log for a specific user'
      description: ''
      authenticated: true
      deprecated: false
    headers:
      Authorization: 'Bearer {YOUR_AUTH_KEY}'
      Content-Type: application/json
      Accept: application/json
    urlParameters:
      id:
        custom: []
        name: id
        description: 'The user ID'
        required: true
        example: architecto
        type: string
        enumValues: []
        exampleWasSpecified: false
        nullable: false
        deprecated: false
    cleanUrlParameters:
      id: architecto
    queryParameters: []
    cleanQueryParameters: []
    bodyParameters: []
    cleanBodyParameters: []
    fileParameters: []
    responses:
      -
        custom: []
        status: 200
        content: |-
          {
            "success": true,
            "data": [
              {
                "id": 1,
                "action": "update",
                "model_type": "User",
                "old_values": {"username": "oldname"},
                "new_values": {"username": "newname"},
                "user_id": 2,
                "created_at": "2025-01-01T00:00:00Z"
              }
            ]
          }
        headers: []
        description: ''
    responseFields: []
    auth:
      - headers
      - Authorization
      - 'Bearer 6g43cv8PD1aE5beadkZfhV6'
    controller: null
    method: null
    route: null
  -
    custom: []
    httpMethods:
      - POST
    uri: 'api/users/{id}/remove-role'
    metadata:
      custom: []
      groupName: 'User Management'
      groupDescription: ''
      subgroup: ''
      subgroupDescription: ''
      title: 'Remove role from user'
      description: ''
      authenticated: true
      deprecated: false
    headers:
      Authorization: 'Bearer {YOUR_AUTH_KEY}'
      Content-Type: application/json
      Accept: application/json
    urlParameters:
      id:
        custom: []
        name: id
        description: 'The user ID'
        required: true
        example: architecto
        type: string
        enumValues: []
        exampleWasSpecified: false
        nullable: false
        deprecated: false
    cleanUrlParameters:
      id: architecto
    queryParameters: []
    cleanQueryParameters: []
    bodyParameters:
      role:
        custom: []
        name: role
        description: 'Role to remove.'
        required: true
        example: admin
        type: string
        enumValues: []
        exampleWasSpecified: true
        nullable: false
        deprecated: false
    cleanBodyParameters:
      role: admin
    fileParameters: []
    responses:
      -
        custom: []
        status: 200
        content: |-
          {
            "success": true,
            "message": "Role removed successfully",
            "data": {
              "id": 1,
              "username": "johndoe",
              "roles": ["member"]
            }
          }
        headers: []
        description: ''
    responseFields: []
    auth:
      - headers
      - Authorization
      - 'Bearer 6g43cv8PD1aE5beadkZfhV6'
    controller: null
    method: null
    route: null
  -
    custom: []
    httpMethods:
      - POST
    uri: 'api/users/{id}/sync-roles'
    metadata:
      custom: []
      groupName: 'User Management'
      groupDescription: ''
      subgroup: ''
      subgroupDescription: ''
      title: 'Sync user roles (replace all roles)'
      description: ''
      authenticated: true
      deprecated: false
    headers:
      Authorization: 'Bearer {YOUR_AUTH_KEY}'
      Content-Type: application/json
      Accept: application/json
    urlParameters:
      id:
        custom: []
        name: id
        description: 'The user ID'
        required: true
        example: architecto
        type: string
        enumValues: []
        exampleWasSpecified: false
        nullable: false
        deprecated: false
    cleanUrlParameters:
      id: architecto
    queryParameters: []
    cleanQueryParameters: []
    bodyParameters:
      roles:
        custom: []
        name: roles
        description: 'Array of role names.'
        required: true
        example:
          - member
          - admin
        type: 'string[]'
        enumValues: []
        exampleWasSpecified: true
        nullable: false
        deprecated: false
    cleanBodyParameters:
      roles:
        - member
        - admin
    fileParameters: []
    responses:
      -
        custom: []
        status: 200
        content: |-
          {
            "success": true,
            "message": "User roles updated successfully",
            "data": {
              "id": 1,
              "username": "johndoe",
              "roles": ["member", "admin"]
            }
          }
        headers: []
        description: ''
    responseFields: []
    auth:
      - headers
      - Authorization
      - 'Bearer 6g43cv8PD1aE5beadkZfhV6'
    controller: null
    method: null
    route: null
  -
    custom: []
    httpMethods:
      - POST
    uri: api/users/bulk/assign-role
    metadata:
      custom: []
      groupName: 'User Management'
      groupDescription: ''
      subgroup: ''
      subgroupDescription: ''
      title: 'Bulk assign role to multiple users'
      description: ''
      authenticated: true
      deprecated: false
    headers:
      Authorization: 'Bearer {YOUR_AUTH_KEY}'
      Content-Type: application/json
      Accept: application/json
    urlParameters: []
    cleanUrlParameters: []
    queryParameters: []
    cleanQueryParameters: []
    bodyParameters:
      user_ids:
        custom: []
        name: user_ids
        description: 'Array of user IDs.'
        required: true
        example:
          - 1
          - 2
          - 3
        type: 'string[]'
        enumValues: []
        exampleWasSpecified: true
        nullable: false
        deprecated: false
      role:
        custom: []
        name: role
        description: 'Role to assign.'
        required: true
        example: admin
        type: string
        enumValues: []
        exampleWasSpecified: true
        nullable: false
        deprecated: false
    cleanBodyParameters:
      user_ids:
        - 1
        - 2
        - 3
      role: admin
    fileParameters: []
    responses:
      -
        custom: []
        status: 200
        content: |-
          {
            "success": true,
            "message": "Role assigned to 3 users successfully",
            "data": {
              "successful": 3,
              "failed": 0,
              "errors": []
            }
          }
        headers: []
        description: ''
    responseFields: []
    auth:
      - headers
      - Authorization
      - 'Bearer 6g43cv8PD1aE5beadkZfhV6'
    controller: null
    method: null
    route: null
  -
    custom: []
    httpMethods:
      - POST
    uri: api/users/bulk/remove-role
    metadata:
      custom: []
      groupName: 'User Management'
      groupDescription: ''
      subgroup: ''
      subgroupDescription: ''
      title: 'Bulk remove role from multiple users'
      description: ''
      authenticated: true
      deprecated: false
    headers:
      Authorization: 'Bearer {YOUR_AUTH_KEY}'
      Content-Type: application/json
      Accept: application/json
    urlParameters: []
    cleanUrlParameters: []
    queryParameters: []
    cleanQueryParameters: []
    bodyParameters:
      user_ids:
        custom: []
        name: user_ids
        description: 'Array of user IDs.'
        required: true
        example:
          - 1
          - 2
          - 3
        type: 'string[]'
        enumValues: []
        exampleWasSpecified: true
        nullable: false
        deprecated: false
      role:
        custom: []
        name: role
        description: 'Role to remove.'
        required: true
        example: admin
        type: string
        enumValues: []
        exampleWasSpecified: true
        nullable: false
        deprecated: false
    cleanBodyParameters:
      user_ids:
        - 1
        - 2
        - 3
      role: admin
    fileParameters: []
    responses:
      -
        custom: []
        status: 200
        content: |-
          {
            "success": true,
            "message": "Role removed from 3 users successfully",
            "data": {
              "successful": 3,
              "failed": 0,
              "errors": []
            }
          }
        headers: []
        description: ''
    responseFields: []
    auth:
      - headers
      - Authorization
      - 'Bearer 6g43cv8PD1aE5beadkZfhV6'
    controller: null
    method: null
    route: null
  -
    custom: []
    httpMethods:
      - POST
    uri: api/users/bulk/delete
    metadata:
      custom: []
      groupName: 'User Management'
      groupDescription: ''
      subgroup: ''
      subgroupDescription: ''
      title: 'Bulk delete users'
      description: ''
      authenticated: true
      deprecated: false
    headers:
      Authorization: 'Bearer {YOUR_AUTH_KEY}'
      Content-Type: application/json
      Accept: application/json
    urlParameters: []
    cleanUrlParameters: []
    queryParameters: []
    cleanQueryParameters: []
    bodyParameters:
      user_ids:
        custom: []
        name: user_ids
        description: 'Array of user IDs.'
        required: true
        example:
          - 1
          - 2
          - 3
        type: 'string[]'
        enumValues: []
        exampleWasSpecified: true
        nullable: false
        deprecated: false
    cleanBodyParameters:
      user_ids:
        - 1
        - 2
        - 3
    fileParameters: []
    responses:
      -
        custom: []
        status: 200
        content: |-
          {
            "success": true,
            "message": "3 users deleted successfully",
            "data": {
              "successful": 3,
              "failed": 0,
              "errors": []
            }
          }
        headers: []
        description: ''
    responseFields: []
    auth:
      - headers
      - Authorization
      - 'Bearer 6g43cv8PD1aE5beadkZfhV6'
    controller: null
    method: null
    route: null
  -
    custom: []
    httpMethods:
      - POST
    uri: api/users/bulk/restore
    metadata:
      custom: []
      groupName: 'User Management'
      groupDescription: ''
      subgroup: ''
      subgroupDescription: ''
      title: 'Bulk restore users'
      description: ''
      authenticated: true
      deprecated: false
    headers:
      Authorization: 'Bearer {YOUR_AUTH_KEY}'
      Content-Type: application/json
      Accept: application/json
    urlParameters: []
    cleanUrlParameters: []
    queryParameters: []
    cleanQueryParameters: []
    bodyParameters:
      user_ids:
        custom: []
        name: user_ids
        description: 'Array of user IDs.'
        required: true
        example:
          - 1
          - 2
          - 3
        type: 'string[]'
        enumValues: []
        exampleWasSpecified: true
        nullable: false
        deprecated: false
    cleanBodyParameters:
      user_ids:
        - 1
        - 2
        - 3
    fileParameters: []
    responses:
      -
        custom: []
        status: 200
        content: |-
          {
            "success": true,
            "message": "3 users restored successfully",
            "data": {
              "successful": 3,
              "failed": 0,
              "errors": []
            }
          }
        headers: []
        description: ''
    responseFields: []
    auth:
      - headers
      - Authorization
      - 'Bearer 6g43cv8PD1aE5beadkZfhV6'
    controller: null
    method: null
    route: null
  -
    custom: []
    httpMethods:
      - POST
    uri: api/users/bulk/update
    metadata:
      custom: []
      groupName: 'User Management'
      groupDescription: ''
      subgroup: ''
      subgroupDescription: ''
      title: 'Bulk update users'
      description: ''
      authenticated: true
      deprecated: false
    headers:
      Authorization: 'Bearer {YOUR_AUTH_KEY}'
      Content-Type: application/json
      Accept: application/json
    urlParameters: []
    cleanUrlParameters: []
    queryParameters: []
    cleanQueryParameters: []
    bodyParameters:
      user_ids:
        custom: []
        name: user_ids
        description: 'Array of user IDs.'
        required: true
        example:
          - 1
          - 2
          - 3
        type: 'string[]'
        enumValues: []
        exampleWasSpecified: true
        nullable: false
        deprecated: false
      data:
        custom: []
        name: data
        description: 'Update data.'
        required: true
        example:
          email_verified_at: '2025-01-01T00:00:00Z'
        type: object
        enumValues: []
        exampleWasSpecified: true
        nullable: false
        deprecated: false
      data.username:
        custom: []
        name: data.username
        description: 'Must not be greater than 255 characters.'
        required: false
        example: b
        type: string
        enumValues: []
        exampleWasSpecified: false
        nullable: false
        deprecated: false
      data.email:
        custom: []
        name: data.email
        description: 'Must be a valid email address.'
        required: false
        example: zbailey@example.net
        type: string
        enumValues: []
        exampleWasSpecified: false
        nullable: false
        deprecated: false
    cleanBodyParameters:
      user_ids:
        - 1
        - 2
        - 3
      data:
        email_verified_at: '2025-01-01T00:00:00Z'
        username: b
        email: zbailey@example.net
    fileParameters: []
    responses:
      -
        custom: []
        status: 200
        content: |-
          {
            "success": true,
            "message": "3 users updated successfully",
            "data": {
              "successful": 3,
              "failed": 0,
              "errors": []
            }
          }
        headers: []
        description: ''
    responseFields: []
    auth:
      - headers
      - Authorization
      - 'Bearer 6g43cv8PD1aE5beadkZfhV6'
    controller: null
    method: null
    route: null
